{
  "HangfireSettings": {
    "Route": "/jobs",
    "Dashboard": {
      "AppPath": "/",
      "StatsPollingInterval": 2000,
      "DashboardTitle": "Jobs"
    },
    "Server": {
      "HeartbeatInterval": "00:00:30",
      "Queues": [
        "default",
        "notdefault",
        "notification",
        "appcustomersync",
        "catalogqueue"
      ],
      "SchedulePollingInterval": "00:00:15",
      "ServerCheckInterval": "00:05:00",
      "ServerName": null,
      "ServerTimeout": "00:05:00",
      "ShutdownTimeout": "00:00:15",
      "WorkerCount": 5
    },
    "Storage": {
      "StorageProvider": "mssql",
      "ConnectionString": "server=.; database=TestDb_Jobs; Trusted_Connection=True;TrustServerCertificate=True",
      "Options": {
        "CommandBatchMaxTimeout": "00:05:00",
        "QueuePollInterval": "00:00:10",
        "UseRecommendedIsolationLevel": true,
        "SlidingInvisibilityTimeout": "00:05:00",
        "DisableGlobalLocks": true
      }
    },
    "Credentials": {
      "User": "admin",
      "Password": "admin"
    }
  }
}